{ "@context":
  [ "https://ns.1024.gdn/KDL/context.jsonld"
  , { "NamespacedIdentifier": "kdl:NamespacedIdentifier"
    , "expandedForm": "kdl:expandedForm"
    , "localPart": "kdl:localPart"
    , "namespace": "kdl:namespace"
    , "prefix": "kdl:prefix" } ] }
